<?xml version="1.0" encoding="UTF-8" standalone="no"?>
<svg
   xmlns:dc="http://purl.org/dc/elements/1.1/"
   xmlns:cc="http://creativecommons.org/ns#"
   xmlns:rdf="http://www.w3.org/1999/02/22-rdf-syntax-ns#"
   xmlns:svg="http://www.w3.org/2000/svg"
   xmlns="http://www.w3.org/2000/svg"
   xmlns:sodipodi="http://sodipodi.sourceforge.net/DTD/sodipodi-0.dtd"
   xmlns:inkscape="http://www.inkscape.org/namespaces/inkscape"
   enable-background="new 0 0 32 32"
   height="24"
   id="Слой_1"
   version="1.1"
   viewBox="0 0 24 24"
   width="24"
   xml:space="preserve"
   inkscape:version="0.92.4 (5da689c313, 2019-01-14)"
   sodipodi:docname="small_pause.svg"
   inkscape:export-filename="/home/a/droid/SMP/misc/loop.png"
   inkscape:export-xdpi="189.34193"
   inkscape:export-ydpi="189.34193"><metadata
     id="metadata20"><rdf:RDF><cc:Work
         rdf:about=""><dc:format>image/svg+xml</dc:format><dc:type
           rdf:resource="http://purl.org/dc/dcmitype/StillImage" /><dc:title></dc:title></cc:Work></rdf:RDF></metadata><defs
     id="defs18" /><sodipodi:namedview
     pagecolor="#ffffff"
     bordercolor="#666666"
     borderopacity="1"
     objecttolerance="10"
     gridtolerance="10"
     guidetolerance="10"
     inkscape:pageopacity="0"
     inkscape:pageshadow="2"
     inkscape:window-width="1680"
     inkscape:window-height="985"
     id="namedview16"
     showgrid="true"
     inkscape:zoom="17.195245"
     inkscape:cx="14.106589"
     inkscape:cy="21.756169"
     inkscape:window-x="0"
     inkscape:window-y="0"
     inkscape:window-maximized="1"
     inkscape:current-layer="Слой_1"><inkscape:grid
       type="xygrid"
       id="grid992" /></sodipodi:namedview><g
     id="g4"
     transform="matrix(1.3582883,0,0,1.4243798,-2.1513615,-16.721776)"
     style="stroke:none" /><g
     id="g6"
     transform="matrix(1.3582883,0,0,1.4243798,-2.1513615,-16.721776)"
     style="stroke:none" /><g
     id="g8"
     transform="matrix(1.3582883,0,0,1.4243798,-2.1513615,-16.721776)"
     style="stroke:none" /><g
     id="g10"
     transform="matrix(1.3582883,0,0,1.4243798,-2.1513615,-16.721776)"
     style="stroke:none" /><g
     id="g12"
     transform="matrix(1.3582883,0,0,1.4243798,-2.1513615,-16.721776)"
     style="stroke:none" /><g
     id="g14"
     transform="matrix(1.3582883,0,0,1.4243798,-2.1513615,-16.721776)"
     style="stroke:none" /><path
     style="fill:#ff0000;fill-opacity:1;stroke:none;stroke-width:1.62532628px;stroke-linecap:butt;stroke-linejoin:miter;stroke-opacity:1"
     d="M 4,1 V 23 H 9 V 1 Z"
     id="path988"
     inkscape:connector-curvature="0"
     sodipodi:nodetypes="ccccc" /><path
     style="fill:#ff0000;fill-opacity:1;stroke:none;stroke-width:1.65660107px;stroke-linecap:butt;stroke-linejoin:miter;stroke-opacity:1"
     d="M 15,0.99284617 V 23 h 5.137547 L 20,1 Z"
     id="path990"
     inkscape:connector-curvature="0"
     sodipodi:nodetypes="ccccc" /></svg>